[gd_scene format=2]

[node name="Hud" type="Control"]
anchor_right = 1.0
anchor_bottom = 1.0

[node name="ColorRect" type="ColorRect" parent="."]
margin_right = 380.0
margin_bottom = 120.0
color = Color( 0, 0, 0, 1 )

[node name="Label" type="Label" parent="."]
margin_left = 10.0
margin_top = 14.0
margin_right = 50.0
margin_bottom = 28.0
text = "Hello"

[node name="Label2" type="Label" parent="."]
margin_left = 10.0
margin_top = 40.0
margin_right = 56.0
margin_bottom = 54.0
text = "Basis..."

